{
  "config": {
    "dllocation": ".",
    "interval": "3600"
  },
  "trackers": {
    "nyaa": {
      "url": "http://www.nyaa.se/",
      "rss_url": "http://www.nyaa.se/?page=rss&term=",
      "DL": "/mnt/smb/SKAIA/Downloads",
      "keywords": ["HorribleSubs","1080p","-batch"]
    },
    "lostfilm": {
      "url": "http://lostfilm.tv",
      "rss_url": "http://www.lostfilm.tv/rssdd.xml",
      "DL": "/mnt/smb/SKAIA/Downloads",
      "keywords": []
    }
  },
  "tracks": [
    {
      "name": "Alderamin",
      "tracker": "nyaa",
      "keywords": ["Alderamin"],
      "DL": ""
    },
    {
      "name": "D.Gray-man",
      "tracker": "nyaa",
      "keywords": ["Gray","man","hallow"],
      "DL": ""
    },
    {
      "name": "JoJo 4",
      "tracker": "nyaa",
      "keywords": ["diamond","unbreakable"],
      "DL": ""
    }
  ]
}
